<?xml version="1.0" encoding="UTF-8" standalone="no"?>
<svg
   xmlns:dc="http://purl.org/dc/elements/1.1/"
   xmlns:cc="http://creativecommons.org/ns#"
   xmlns:rdf="http://www.w3.org/1999/02/22-rdf-syntax-ns#"
   xmlns:svg="http://www.w3.org/2000/svg"
   xmlns="http://www.w3.org/2000/svg"
   xmlns:xlink="http://www.w3.org/1999/xlink"
   xmlns:sodipodi="http://sodipodi.sourceforge.net/DTD/sodipodi-0.dtd"
   xmlns:inkscape="http://www.inkscape.org/namespaces/inkscape"
   width="7.5"
   height="15"
   viewBox="0 0 5 10"
   version="1.1"
   id="svg3747"
   sodipodi:docname="right-arrow.svg"
   inkscape:version="0.92.3 (2405546, 2018-03-11)">
  <metadata
     id="metadata3751">
    <rdf:RDF>
      <cc:Work
         rdf:about="">
        <dc:format>image/svg+xml</dc:format>
        <dc:type
           rdf:resource="http://purl.org/dc/dcmitype/StillImage" />
      </cc:Work>
    </rdf:RDF>
  </metadata>
  <sodipodi:namedview
     pagecolor="#ffffff"
     bordercolor="#666666"
     borderopacity="1"
     objecttolerance="10"
     gridtolerance="10"
     guidetolerance="10"
     inkscape:pageopacity="0"
     inkscape:pageshadow="2"
     inkscape:window-width="1366"
     inkscape:window-height="705"
     id="namedview3749"
     showgrid="false"
     inkscape:snap-page="true"
     inkscape:zoom="37.900923"
     inkscape:cx="-2.1424948"
     inkscape:cy="5.0263363"
     inkscape:window-x="-8"
     inkscape:window-y="-8"
     inkscape:window-maximized="1"
     inkscape:current-layer="g3745" />
  <defs
     id="defs3735">
    <path
       id="vinha"
       d="M145 5l5 5" />
    <path
       id="vinhb"
       d="M150 10l-5 5" />
  </defs>
  <g
     id="g3745">
    <g
       transform="matrix(0.63600162,0,0,0.63600162,-91.285262,-1.3452447)"
       id="g3739">
      <use
         stroke-miterlimit="50"
         xlink:href="#vinha"
         id="use3737"
         style="fill:#ffffff;fill-opacity:0;stroke:#444444;stroke-width:2;stroke-linecap:square;stroke-miterlimit:50"
         x="0"
         y="0"
         width="100%"
         height="100%" />
    </g>
    <g
       transform="matrix(0.63600162,0,0,0.63600162,-91.285262,-1.2747877)"
       id="g3743">
      <use
         stroke-miterlimit="50"
         xlink:href="#vinhb"
         id="use3741"
         style="fill:#ffffff;fill-opacity:0;stroke:#444444;stroke-width:2;stroke-linecap:square;stroke-miterlimit:50"
         x="0"
         y="0"
         width="100%"
         height="100%" />
    </g>
  </g>
</svg>
